%YAML 1.1
%TAG !u! tag:unity3d.com,2011:
--- !u!114 &11400000
MonoBehaviour:
  m_ObjectHideFlags: 0
  m_CorrespondingSourceObject: {fileID: 0}
  m_PrefabInstance: {fileID: 0}
  m_PrefabAsset: {fileID: 0}
  m_GameObject: {fileID: 0}
  m_Enabled: 1
  m_EditorHideFlags: 0
  m_Script: {fileID: 11500000, guid: c3d211144b02db9469c92f119740e451, type: 3}
  m_Name: newSceneReference 16
  m_EditorClassIdentifier: 
  levelBuildIndex: 0
  menuBuildIndex: 0
  earnedStars: 0
  oneStarTime: 0
  twoStarTime: 0
  threeStarTime: 0
  ignore: 0
  levelScene: {fileID: 102900000, guid: a23186d5f8a66d24bb9bd996980cc0ea, type: 3}
  menuScene: {fileID: 102900000, guid: c1636e12907570f49accbd8cea508aae, type: 3}
