%YAML 1.1
%TAG !u! tag:unity3d.com,2011:
--- !u!29 &1
OcclusionCullingSettings:
  m_ObjectHideFlags: 0
  serializedVersion: 2
  m_OcclusionBakeSettings:
    smallestOccluder: 5
    smallestHole: 0.25
    backfaceThreshold: 100
  m_SceneGUID: 00000000000000000000000000000000
  m_OcclusionCullingData: {fileID: 0}
--- !u!104 &2
RenderSettings:
  m_ObjectHideFlags: 0
  serializedVersion: 9
  m_Fog: 0
  m_FogColor: {r: 0.5, g: 0.5, b: 0.5, a: 1}
  m_FogMode: 3
  m_FogDensity: 0.01
  m_LinearFogStart: 0
  m_LinearFogEnd: 300
  m_AmbientSkyColor: {r: 0.212, g: 0.227, b: 0.259, a: 1}
  m_AmbientEquatorColor: {r: 0.114, g: 0.125, b: 0.133, a: 1}
  m_AmbientGroundColor: {r: 0.047, g: 0.043, b: 0.035, a: 1}
  m_AmbientIntensity: 1
  m_AmbientMode: 0
  m_SubtractiveShadowColor: {r: 0.42, g: 0.478, b: 0.627, a: 1}
  m_SkyboxMaterial: {fileID: 2100000, guid: 5cb3d412579e6544b8718b834394cdf5, type: 2}
  m_HaloStrength: 0.5
  m_FlareStrength: 1
  m_FlareFadeSpeed: 3
  m_HaloTexture: {fileID: 0}
  m_SpotCookie: {fileID: 10001, guid: 0000000000000000e000000000000000, type: 0}
  m_DefaultReflectionMode: 0
  m_DefaultReflectionResolution: 128
  m_ReflectionBounces: 1
  m_ReflectionIntensity: 1
  m_CustomReflection: {fileID: 0}
  m_Sun: {fileID: 0}
  m_IndirectSpecularColor: {r: 0.71999353, g: 0.69255644, b: 0.7367128, a: 1}
  m_UseRadianceAmbientProbe: 0
--- !u!157 &3
LightmapSettings:
  m_ObjectHideFlags: 0
  serializedVersion: 12
  m_GIWorkflowMode: 0
  m_GISettings:
    serializedVersion: 2
    m_BounceScale: 1
    m_IndirectOutputScale: 1
    m_AlbedoBoost: 1
    m_EnvironmentLightingMode: 0
    m_EnableBakedLightmaps: 0
    m_EnableRealtimeLightmaps: 0
  m_LightmapEditorSettings:
    serializedVersion: 12
    m_Resolution: 2
    m_BakeResolution: 40
    m_AtlasSize: 1024
    m_AO: 0
    m_AOMaxDistance: 1
    m_CompAOExponent: 1
    m_CompAOExponentDirect: 0
    m_ExtractAmbientOcclusion: 0
    m_Padding: 2
    m_LightmapParameters: {fileID: 0}
    m_LightmapsBakeMode: 1
    m_TextureCompression: 1
    m_FinalGather: 0
    m_FinalGatherFiltering: 1
    m_FinalGatherRayCount: 256
    m_ReflectionCompression: 2
    m_MixedBakeMode: 2
    m_BakeBackend: 1
    m_PVRSampling: 1
    m_PVRDirectSampleCount: 32
    m_PVRSampleCount: 500
    m_PVRBounces: 2
    m_PVREnvironmentSampleCount: 500
    m_PVREnvironmentReferencePointCount: 2048
    m_PVRFilteringMode: 2
    m_PVRDenoiserTypeDirect: 0
    m_PVRDenoiserTypeIndirect: 0
    m_PVRDenoiserTypeAO: 0
    m_PVRFilterTypeDirect: 0
    m_PVRFilterTypeIndirect: 0
    m_PVRFilterTypeAO: 0
    m_PVREnvironmentMIS: 0
    m_PVRCulling: 1
    m_PVRFilteringGaussRadiusDirect: 1
    m_PVRFilteringGaussRadiusIndirect: 5
    m_PVRFilteringGaussRadiusAO: 2
    m_PVRFilteringAtrousPositionSigmaDirect: 0.5
    m_PVRFilteringAtrousPositionSigmaIndirect: 2
    m_PVRFilteringAtrousPositionSigmaAO: 1
    m_ExportTrainingData: 0
    m_TrainingDataDestination: TrainingData
    m_LightProbeSampleCountMultiplier: 4
  m_LightingDataAsset: {fileID: 0}
  m_LightingSettings: {fileID: 4890085278179872738, guid: a1f6211a34e64d64b85da68de79daccb,
    type: 2}
--- !u!196 &4
NavMeshSettings:
  serializedVersion: 2
  m_ObjectHideFlags: 0
  m_BuildSettings:
    serializedVersion: 2
    agentTypeID: 0
    agentRadius: 0.5
    agentHeight: 2
    agentSlope: 45
    agentClimb: 0.4
    ledgeDropHeight: 0
    maxJumpAcrossDistance: 0
    minRegionArea: 2
    manualCellSize: 0
    cellSize: 0.16666667
    manualTileSize: 0
    tileSize: 256
    accuratePlacement: 0
    maxJobWorkers: 0
    preserveTilesOutsideBounds: 0
    debug:
      m_Flags: 0
  m_NavMeshData: {fileID: 0}
--- !u!1001 &1512852459
PrefabInstance:
  m_ObjectHideFlags: 0
  serializedVersion: 2
  m_Modification:
    m_TransformParent: {fileID: 0}
    m_Modifications:
    - target: {fileID: 1144090831, guid: 3b1dd7f41e5e83c46ab8c85b7fc9544e, type: 3}
      propertyPath: m_Name
      value: EventSystem
      objectReference: {fileID: 0}
    - target: {fileID: 1144090834, guid: 3b1dd7f41e5e83c46ab8c85b7fc9544e, type: 3}
      propertyPath: m_LocalPosition.x
      value: 0
      objectReference: {fileID: 0}
    - target: {fileID: 1144090834, guid: 3b1dd7f41e5e83c46ab8c85b7fc9544e, type: 3}
      propertyPath: m_LocalPosition.y
      value: 0
      objectReference: {fileID: 0}
    - target: {fileID: 1144090834, guid: 3b1dd7f41e5e83c46ab8c85b7fc9544e, type: 3}
      propertyPath: m_LocalPosition.z
      value: 0
      objectReference: {fileID: 0}
    - target: {fileID: 1144090834, guid: 3b1dd7f41e5e83c46ab8c85b7fc9544e, type: 3}
      propertyPath: m_LocalRotation.x
      value: 0
      objectReference: {fileID: 0}
    - target: {fileID: 1144090834, guid: 3b1dd7f41e5e83c46ab8c85b7fc9544e, type: 3}
      propertyPath: m_LocalRotation.y
      value: 0
      objectReference: {fileID: 0}
    - target: {fileID: 1144090834, guid: 3b1dd7f41e5e83c46ab8c85b7fc9544e, type: 3}
      propertyPath: m_LocalRotation.z
      value: 0
      objectReference: {fileID: 0}
    - target: {fileID: 1144090834, guid: 3b1dd7f41e5e83c46ab8c85b7fc9544e, type: 3}
      propertyPath: m_LocalRotation.w
      value: 1
      objectReference: {fileID: 0}
    - target: {fileID: 1144090834, guid: 3b1dd7f41e5e83c46ab8c85b7fc9544e, type: 3}
      propertyPath: m_RootOrder
      value: 1
      objectReference: {fileID: 0}
    - target: {fileID: 1144090834, guid: 3b1dd7f41e5e83c46ab8c85b7fc9544e, type: 3}
      propertyPath: m_LocalEulerAnglesHint.x
      value: 0
      objectReference: {fileID: 0}
    - target: {fileID: 1144090834, guid: 3b1dd7f41e5e83c46ab8c85b7fc9544e, type: 3}
      propertyPath: m_LocalEulerAnglesHint.y
      value: 0
      objectReference: {fileID: 0}
    - target: {fileID: 1144090834, guid: 3b1dd7f41e5e83c46ab8c85b7fc9544e, type: 3}
      propertyPath: m_LocalEulerAnglesHint.z
      value: 0
      objectReference: {fileID: 0}
    m_RemovedComponents: []
  m_SourcePrefab: {fileID: 100100000, guid: 3b1dd7f41e5e83c46ab8c85b7fc9544e, type: 3}
--- !u!1001 &2134953769158483122
PrefabInstance:
  m_ObjectHideFlags: 0
  serializedVersion: 2
  m_Modification:
    m_TransformParent: {fileID: 0}
    m_Modifications:
    - target: {fileID: 2134953769307939633, guid: f4f4195bdbeed824983d38771f0f5b32,
        type: 3}
      propertyPath: m_Name
      value: MenuCanvas
      objectReference: {fileID: 0}
    - target: {fileID: 2134953769307939638, guid: f4f4195bdbeed824983d38771f0f5b32,
        type: 3}
      propertyPath: levels.Array.size
      value: 9
      objectReference: {fileID: 0}
    - target: {fileID: 2134953769307939638, guid: f4f4195bdbeed824983d38771f0f5b32,
        type: 3}
      propertyPath: levels.Array.data[0].level
      value: 
      objectReference: {fileID: 11400000, guid: 65b019309a2b10c4fa6b2f8257c5e003,
        type: 2}
    - target: {fileID: 2134953769307939638, guid: f4f4195bdbeed824983d38771f0f5b32,
        type: 3}
      propertyPath: levels.Array.data[0].displayName
      value: Tutorial
      objectReference: {fileID: 0}
    - target: {fileID: 2134953769307939638, guid: f4f4195bdbeed824983d38771f0f5b32,
        type: 3}
      propertyPath: levels.Array.data[0].threeStarTime
      value: 12
      objectReference: {fileID: 0}
    - target: {fileID: 2134953769307939638, guid: f4f4195bdbeed824983d38771f0f5b32,
        type: 3}
      propertyPath: levels.Array.data[0].twoStarTime
      value: 16
      objectReference: {fileID: 0}
    - target: {fileID: 2134953769307939638, guid: f4f4195bdbeed824983d38771f0f5b32,
        type: 3}
      propertyPath: levels.Array.data[0].oneStarTime
      value: 20
      objectReference: {fileID: 0}
    - target: {fileID: 2134953769307939638, guid: f4f4195bdbeed824983d38771f0f5b32,
        type: 3}
      propertyPath: levels.Array.data[1].level
      value: 
      objectReference: {fileID: 11400000, guid: d6152eb2dcc7ef240b88c69351e5e0bd,
        type: 2}
    - target: {fileID: 2134953769307939638, guid: f4f4195bdbeed824983d38771f0f5b32,
        type: 3}
      propertyPath: levels.Array.data[1].displayName
      value: Fun
      objectReference: {fileID: 0}
    - target: {fileID: 2134953769307939638, guid: f4f4195bdbeed824983d38771f0f5b32,
        type: 3}
      propertyPath: levels.Array.data[1].oneStarTime
      value: 14
      objectReference: {fileID: 0}
    - target: {fileID: 2134953769307939638, guid: f4f4195bdbeed824983d38771f0f5b32,
        type: 3}
      propertyPath: levels.Array.data[1].twoStarTime
      value: 12
      objectReference: {fileID: 0}
    - target: {fileID: 2134953769307939638, guid: f4f4195bdbeed824983d38771f0f5b32,
        type: 3}
      propertyPath: levels.Array.data[1].threeStarTime
      value: 9
      objectReference: {fileID: 0}
    - target: {fileID: 2134953769307939638, guid: f4f4195bdbeed824983d38771f0f5b32,
        type: 3}
      propertyPath: levels.Array.data[2].level
      value: 
      objectReference: {fileID: 11400000, guid: a72b471b05c07054fb826daaae38ac0b,
        type: 2}
    - target: {fileID: 2134953769307939638, guid: f4f4195bdbeed824983d38771f0f5b32,
        type: 3}
      propertyPath: levels.Array.data[2].displayName
      value: Bonus
      objectReference: {fileID: 0}
    - target: {fileID: 2134953769307939638, guid: f4f4195bdbeed824983d38771f0f5b32,
        type: 3}
      propertyPath: levels.Array.data[2].oneStarTime
      value: 200
      objectReference: {fileID: 0}
    - target: {fileID: 2134953769307939638, guid: f4f4195bdbeed824983d38771f0f5b32,
        type: 3}
      propertyPath: levels.Array.data[2].twoStarTime
      value: 180
      objectReference: {fileID: 0}
    - target: {fileID: 2134953769307939638, guid: f4f4195bdbeed824983d38771f0f5b32,
        type: 3}
      propertyPath: levels.Array.data[2].threeStarTime
      value: 150
      objectReference: {fileID: 0}
    - target: {fileID: 2134953769307939638, guid: f4f4195bdbeed824983d38771f0f5b32,
        type: 3}
      propertyPath: levels.Array.data[3].level
      value: 
      objectReference: {fileID: 11400000, guid: e8e150366c176ba4296afbc53a2b7a06,
        type: 2}
    - target: {fileID: 2134953769307939638, guid: f4f4195bdbeed824983d38771f0f5b32,
        type: 3}
      propertyPath: levels.Array.data[3].displayName
      value: Credits
      objectReference: {fileID: 0}
    - target: {fileID: 2134953769307939638, guid: f4f4195bdbeed824983d38771f0f5b32,
        type: 3}
      propertyPath: levels.Array.data[3].oneStarTime
      value: 70
      objectReference: {fileID: 0}
    - target: {fileID: 2134953769307939638, guid: f4f4195bdbeed824983d38771f0f5b32,
        type: 3}
      propertyPath: levels.Array.data[3].twoStarTime
      value: 60
      objectReference: {fileID: 0}
    - target: {fileID: 2134953769307939638, guid: f4f4195bdbeed824983d38771f0f5b32,
        type: 3}
      propertyPath: levels.Array.data[3].threeStarTime
      value: 50
      objectReference: {fileID: 0}
    - target: {fileID: 2134953769307939638, guid: f4f4195bdbeed824983d38771f0f5b32,
        type: 3}
      propertyPath: levels.Array.data[4].level
      value: 
      objectReference: {fileID: 11400000, guid: 7cc781499f80a524aa23857fa37b928c,
        type: 2}
    - target: {fileID: 2134953769307939638, guid: f4f4195bdbeed824983d38771f0f5b32,
        type: 3}
      propertyPath: levels.Array.data[4].displayName
      value: MichaelLevel
      objectReference: {fileID: 0}
    - target: {fileID: 2134953769307939638, guid: f4f4195bdbeed824983d38771f0f5b32,
        type: 3}
      propertyPath: levels.Array.data[4].oneStarTime
      value: 40
      objectReference: {fileID: 0}
    - target: {fileID: 2134953769307939638, guid: f4f4195bdbeed824983d38771f0f5b32,
        type: 3}
      propertyPath: levels.Array.data[4].twoStarTime
      value: 36
      objectReference: {fileID: 0}
    - target: {fileID: 2134953769307939638, guid: f4f4195bdbeed824983d38771f0f5b32,
        type: 3}
      propertyPath: levels.Array.data[4].threeStarTime
      value: 33
      objectReference: {fileID: 0}
    - target: {fileID: 2134953769307939638, guid: f4f4195bdbeed824983d38771f0f5b32,
        type: 3}
      propertyPath: levels.Array.data[5].level
      value: 
      objectReference: {fileID: 11400000, guid: e858aba95112fda43867cf1981086a29,
        type: 2}
    - target: {fileID: 2134953769307939638, guid: f4f4195bdbeed824983d38771f0f5b32,
        type: 3}
      propertyPath: levels.Array.data[5].displayName
      value: JustinLevel
      objectReference: {fileID: 0}
    - target: {fileID: 2134953769307939638, guid: f4f4195bdbeed824983d38771f0f5b32,
        type: 3}
      propertyPath: levels.Array.data[5].oneStarTime
      value: 30
      objectReference: {fileID: 0}
    - target: {fileID: 2134953769307939638, guid: f4f4195bdbeed824983d38771f0f5b32,
        type: 3}
      propertyPath: levels.Array.data[5].twoStarTime
      value: 25
      objectReference: {fileID: 0}
    - target: {fileID: 2134953769307939638, guid: f4f4195bdbeed824983d38771f0f5b32,
        type: 3}
      propertyPath: levels.Array.data[5].threeStarTime
      value: 17
      objectReference: {fileID: 0}
    - target: {fileID: 2134953769307939638, guid: f4f4195bdbeed824983d38771f0f5b32,
        type: 3}
      propertyPath: levels.Array.data[6].level
      value: 
      objectReference: {fileID: 11400000, guid: 52a11e553e59e344fa44a29979721c67,
        type: 2}
    - target: {fileID: 2134953769307939638, guid: f4f4195bdbeed824983d38771f0f5b32,
        type: 3}
      propertyPath: levels.Array.data[6].displayName
      value: AlissarLevel
      objectReference: {fileID: 0}
    - target: {fileID: 2134953769307939638, guid: f4f4195bdbeed824983d38771f0f5b32,
        type: 3}
      propertyPath: levels.Array.data[6].oneStarTime
      value: 50
      objectReference: {fileID: 0}
    - target: {fileID: 2134953769307939638, guid: f4f4195bdbeed824983d38771f0f5b32,
        type: 3}
      propertyPath: levels.Array.data[6].twoStarTime
      value: 46
      objectReference: {fileID: 0}
    - target: {fileID: 2134953769307939638, guid: f4f4195bdbeed824983d38771f0f5b32,
        type: 3}
      propertyPath: levels.Array.data[6].threeStarTime
      value: 43
      objectReference: {fileID: 0}
    - target: {fileID: 2134953769307939638, guid: f4f4195bdbeed824983d38771f0f5b32,
        type: 3}
      propertyPath: levels.Array.data[7].level
      value: 
      objectReference: {fileID: 11400000, guid: 3ae3eda0cc04d5d4bb12d7f3bbf8b5bb,
        type: 2}
    - target: {fileID: 2134953769307939638, guid: f4f4195bdbeed824983d38771f0f5b32,
        type: 3}
      propertyPath: levels.Array.data[7].displayName
      value: BennyLevel
      objectReference: {fileID: 0}
    - target: {fileID: 2134953769307939638, guid: f4f4195bdbeed824983d38771f0f5b32,
        type: 3}
      propertyPath: levels.Array.data[7].oneStarTime
      value: 24
      objectReference: {fileID: 0}
    - target: {fileID: 2134953769307939638, guid: f4f4195bdbeed824983d38771f0f5b32,
        type: 3}
      propertyPath: levels.Array.data[7].twoStarTime
      value: 22
      objectReference: {fileID: 0}
    - target: {fileID: 2134953769307939638, guid: f4f4195bdbeed824983d38771f0f5b32,
        type: 3}
      propertyPath: levels.Array.data[7].threeStarTime
      value: 20
      objectReference: {fileID: 0}
    - target: {fileID: 2134953769307939638, guid: f4f4195bdbeed824983d38771f0f5b32,
        type: 3}
      propertyPath: levels.Array.data[8].level
      value: 
      objectReference: {fileID: 11400000, guid: 85901e1e45146d045bf22cffecd3e3b6,
        type: 2}
    - target: {fileID: 2134953769307939638, guid: f4f4195bdbeed824983d38771f0f5b32,
        type: 3}
      propertyPath: levels.Array.data[8].displayName
      value: BenjiLevel
      objectReference: {fileID: 0}
    - target: {fileID: 2134953769307939638, guid: f4f4195bdbeed824983d38771f0f5b32,
        type: 3}
      propertyPath: levels.Array.data[8].oneStarTime
      value: 70
      objectReference: {fileID: 0}
    - target: {fileID: 2134953769307939638, guid: f4f4195bdbeed824983d38771f0f5b32,
        type: 3}
      propertyPath: levels.Array.data[8].twoStarTime
      value: 60
      objectReference: {fileID: 0}
    - target: {fileID: 2134953769307939638, guid: f4f4195bdbeed824983d38771f0f5b32,
        type: 3}
      propertyPath: levels.Array.data[8].threeStarTime
      value: 55
      objectReference: {fileID: 0}
    - target: {fileID: 2134953769307939642, guid: f4f4195bdbeed824983d38771f0f5b32,
        type: 3}
      propertyPath: m_LocalPosition.x
      value: 0
      objectReference: {fileID: 0}
    - target: {fileID: 2134953769307939642, guid: f4f4195bdbeed824983d38771f0f5b32,
        type: 3}
      propertyPath: m_LocalPosition.y
      value: 0
      objectReference: {fileID: 0}
    - target: {fileID: 2134953769307939642, guid: f4f4195bdbeed824983d38771f0f5b32,
        type: 3}
      propertyPath: m_LocalPosition.z
      value: 0
      objectReference: {fileID: 0}
    - target: {fileID: 2134953769307939642, guid: f4f4195bdbeed824983d38771f0f5b32,
        type: 3}
      propertyPath: m_LocalRotation.x
      value: 0
      objectReference: {fileID: 0}
    - target: {fileID: 2134953769307939642, guid: f4f4195bdbeed824983d38771f0f5b32,
        type: 3}
      propertyPath: m_LocalRotation.y
      value: 0
      objectReference: {fileID: 0}
    - target: {fileID: 2134953769307939642, guid: f4f4195bdbeed824983d38771f0f5b32,
        type: 3}
      propertyPath: m_LocalRotation.z
      value: 0
      objectReference: {fileID: 0}
    - target: {fileID: 2134953769307939642, guid: f4f4195bdbeed824983d38771f0f5b32,
        type: 3}
      propertyPath: m_LocalRotation.w
      value: 1
      objectReference: {fileID: 0}
    - target: {fileID: 2134953769307939642, guid: f4f4195bdbeed824983d38771f0f5b32,
        type: 3}
      propertyPath: m_RootOrder
      value: 3
      objectReference: {fileID: 0}
    - target: {fileID: 2134953769307939642, guid: f4f4195bdbeed824983d38771f0f5b32,
        type: 3}
      propertyPath: m_LocalEulerAnglesHint.x
      value: 0
      objectReference: {fileID: 0}
    - target: {fileID: 2134953769307939642, guid: f4f4195bdbeed824983d38771f0f5b32,
        type: 3}
      propertyPath: m_LocalEulerAnglesHint.y
      value: 0
      objectReference: {fileID: 0}
    - target: {fileID: 2134953769307939642, guid: f4f4195bdbeed824983d38771f0f5b32,
        type: 3}
      propertyPath: m_LocalEulerAnglesHint.z
      value: 0
      objectReference: {fileID: 0}
    - target: {fileID: 2134953769307939642, guid: f4f4195bdbeed824983d38771f0f5b32,
        type: 3}
      propertyPath: m_AnchoredPosition.x
      value: 0
      objectReference: {fileID: 0}
    - target: {fileID: 2134953769307939642, guid: f4f4195bdbeed824983d38771f0f5b32,
        type: 3}
      propertyPath: m_AnchoredPosition.y
      value: 0
      objectReference: {fileID: 0}
    - target: {fileID: 2134953769307939642, guid: f4f4195bdbeed824983d38771f0f5b32,
        type: 3}
      propertyPath: m_SizeDelta.x
      value: 0
      objectReference: {fileID: 0}
    - target: {fileID: 2134953769307939642, guid: f4f4195bdbeed824983d38771f0f5b32,
        type: 3}
      propertyPath: m_SizeDelta.y
      value: 0
      objectReference: {fileID: 0}
    - target: {fileID: 2134953769307939642, guid: f4f4195bdbeed824983d38771f0f5b32,
        type: 3}
      propertyPath: m_AnchorMin.x
      value: 0
      objectReference: {fileID: 0}
    - target: {fileID: 2134953769307939642, guid: f4f4195bdbeed824983d38771f0f5b32,
        type: 3}
      propertyPath: m_AnchorMin.y
      value: 0
      objectReference: {fileID: 0}
    - target: {fileID: 2134953769307939642, guid: f4f4195bdbeed824983d38771f0f5b32,
        type: 3}
      propertyPath: m_AnchorMax.x
      value: 0
      objectReference: {fileID: 0}
    - target: {fileID: 2134953769307939642, guid: f4f4195bdbeed824983d38771f0f5b32,
        type: 3}
      propertyPath: m_AnchorMax.y
      value: 0
      objectReference: {fileID: 0}
    - target: {fileID: 2134953769307939642, guid: f4f4195bdbeed824983d38771f0f5b32,
        type: 3}
      propertyPath: m_Pivot.x
      value: 0
      objectReference: {fileID: 0}
    - target: {fileID: 2134953769307939642, guid: f4f4195bdbeed824983d38771f0f5b32,
        type: 3}
      propertyPath: m_Pivot.y
      value: 0
      objectReference: {fileID: 0}
    - target: {fileID: 2134953769336845006, guid: f4f4195bdbeed824983d38771f0f5b32,
        type: 3}
      propertyPath: m_havePropertiesChanged
      value: 1
      objectReference: {fileID: 0}
    - target: {fileID: 2134953769336845006, guid: f4f4195bdbeed824983d38771f0f5b32,
        type: 3}
      propertyPath: m_isInputParsingRequired
      value: 1
      objectReference: {fileID: 0}
    m_RemovedComponents: []
  m_SourcePrefab: {fileID: 100100000, guid: f4f4195bdbeed824983d38771f0f5b32, type: 3}
--- !u!1001 &3878189075498951433
PrefabInstance:
  m_ObjectHideFlags: 0
  serializedVersion: 2
  m_Modification:
    m_TransformParent: {fileID: 0}
    m_Modifications:
    - target: {fileID: 3878189075176587459, guid: b899b1ccb5aa078498089d8a991e010f,
        type: 3}
      propertyPath: m_Name
      value: Directional Light
      objectReference: {fileID: 0}
    - target: {fileID: 3878189075176587461, guid: b899b1ccb5aa078498089d8a991e010f,
        type: 3}
      propertyPath: m_LocalPosition.x
      value: 0
      objectReference: {fileID: 0}
    - target: {fileID: 3878189075176587461, guid: b899b1ccb5aa078498089d8a991e010f,
        type: 3}
      propertyPath: m_LocalPosition.y
      value: 3
      objectReference: {fileID: 0}
    - target: {fileID: 3878189075176587461, guid: b899b1ccb5aa078498089d8a991e010f,
        type: 3}
      propertyPath: m_LocalPosition.z
      value: 0
      objectReference: {fileID: 0}
    - target: {fileID: 3878189075176587461, guid: b899b1ccb5aa078498089d8a991e010f,
        type: 3}
      propertyPath: m_LocalRotation.x
      value: 0.40821788
      objectReference: {fileID: 0}
    - target: {fileID: 3878189075176587461, guid: b899b1ccb5aa078498089d8a991e010f,
        type: 3}
      propertyPath: m_LocalRotation.y
      value: -0.23456968
      objectReference: {fileID: 0}
    - target: {fileID: 3878189075176587461, guid: b899b1ccb5aa078498089d8a991e010f,
        type: 3}
      propertyPath: m_LocalRotation.z
      value: 0.10938163
      objectReference: {fileID: 0}
    - target: {fileID: 3878189075176587461, guid: b899b1ccb5aa078498089d8a991e010f,
        type: 3}
      propertyPath: m_LocalRotation.w
      value: 0.8754261
      objectReference: {fileID: 0}
    - target: {fileID: 3878189075176587461, guid: b899b1ccb5aa078498089d8a991e010f,
        type: 3}
      propertyPath: m_RootOrder
      value: 0
      objectReference: {fileID: 0}
    - target: {fileID: 3878189075176587461, guid: b899b1ccb5aa078498089d8a991e010f,
        type: 3}
      propertyPath: m_LocalEulerAnglesHint.x
      value: 50
      objectReference: {fileID: 0}
    - target: {fileID: 3878189075176587461, guid: b899b1ccb5aa078498089d8a991e010f,
        type: 3}
      propertyPath: m_LocalEulerAnglesHint.y
      value: -30
      objectReference: {fileID: 0}
    - target: {fileID: 3878189075176587461, guid: b899b1ccb5aa078498089d8a991e010f,
        type: 3}
      propertyPath: m_LocalEulerAnglesHint.z
      value: 0
      objectReference: {fileID: 0}
    m_RemovedComponents: []
  m_SourcePrefab: {fileID: 100100000, guid: b899b1ccb5aa078498089d8a991e010f, type: 3}
--- !u!1001 &5312512507004448574
PrefabInstance:
  m_ObjectHideFlags: 0
  serializedVersion: 2
  m_Modification:
    m_TransformParent: {fileID: 0}
    m_Modifications:
    - target: {fileID: 5312512506144352659, guid: 977e199bde6183f4587263d61f4346ba,
        type: 3}
      propertyPath: m_LocalPosition.x
      value: 0
      objectReference: {fileID: 0}
    - target: {fileID: 5312512506144352659, guid: 977e199bde6183f4587263d61f4346ba,
        type: 3}
      propertyPath: m_LocalPosition.y
      value: 1
      objectReference: {fileID: 0}
    - target: {fileID: 5312512506144352659, guid: 977e199bde6183f4587263d61f4346ba,
        type: 3}
      propertyPath: m_LocalPosition.z
      value: -10
      objectReference: {fileID: 0}
    - target: {fileID: 5312512506144352659, guid: 977e199bde6183f4587263d61f4346ba,
        type: 3}
      propertyPath: m_LocalRotation.x
      value: 0
      objectReference: {fileID: 0}
    - target: {fileID: 5312512506144352659, guid: 977e199bde6183f4587263d61f4346ba,
        type: 3}
      propertyPath: m_LocalRotation.y
      value: 0
      objectReference: {fileID: 0}
    - target: {fileID: 5312512506144352659, guid: 977e199bde6183f4587263d61f4346ba,
        type: 3}
      propertyPath: m_LocalRotation.z
      value: 0
      objectReference: {fileID: 0}
    - target: {fileID: 5312512506144352659, guid: 977e199bde6183f4587263d61f4346ba,
        type: 3}
      propertyPath: m_LocalRotation.w
      value: 1
      objectReference: {fileID: 0}
    - target: {fileID: 5312512506144352659, guid: 977e199bde6183f4587263d61f4346ba,
        type: 3}
      propertyPath: m_RootOrder
      value: 2
      objectReference: {fileID: 0}
    - target: {fileID: 5312512506144352659, guid: 977e199bde6183f4587263d61f4346ba,
        type: 3}
      propertyPath: m_LocalEulerAnglesHint.x
      value: 0
      objectReference: {fileID: 0}
    - target: {fileID: 5312512506144352659, guid: 977e199bde6183f4587263d61f4346ba,
        type: 3}
      propertyPath: m_LocalEulerAnglesHint.y
      value: 0
      objectReference: {fileID: 0}
    - target: {fileID: 5312512506144352659, guid: 977e199bde6183f4587263d61f4346ba,
        type: 3}
      propertyPath: m_LocalEulerAnglesHint.z
      value: 0
      objectReference: {fileID: 0}
    - target: {fileID: 5312512506144352660, guid: 977e199bde6183f4587263d61f4346ba,
        type: 3}
      propertyPath: m_Name
      value: Main Camera
      objectReference: {fileID: 0}
    m_RemovedComponents: []
  m_SourcePrefab: {fileID: 100100000, guid: 977e199bde6183f4587263d61f4346ba, type: 3}
--- !u!1001 &8478200075052007020
PrefabInstance:
  m_ObjectHideFlags: 0
  serializedVersion: 2
  m_Modification:
    m_TransformParent: {fileID: 0}
    m_Modifications:
    - target: {fileID: 1919435605583720069, guid: 11a23642d8992fb48a97fcfb29a3d15a,
        type: 3}
      propertyPath: m_LocalPosition.x
      value: 0
      objectReference: {fileID: 0}
    - target: {fileID: 1919435605583720069, guid: 11a23642d8992fb48a97fcfb29a3d15a,
        type: 3}
      propertyPath: m_LocalPosition.y
      value: 0
      objectReference: {fileID: 0}
    - target: {fileID: 1919435605583720069, guid: 11a23642d8992fb48a97fcfb29a3d15a,
        type: 3}
      propertyPath: m_LocalPosition.z
      value: 0
      objectReference: {fileID: 0}
    - target: {fileID: 1919435605583720069, guid: 11a23642d8992fb48a97fcfb29a3d15a,
        type: 3}
      propertyPath: m_LocalRotation.x
      value: 0
      objectReference: {fileID: 0}
    - target: {fileID: 1919435605583720069, guid: 11a23642d8992fb48a97fcfb29a3d15a,
        type: 3}
      propertyPath: m_LocalRotation.y
      value: 0
      objectReference: {fileID: 0}
    - target: {fileID: 1919435605583720069, guid: 11a23642d8992fb48a97fcfb29a3d15a,
        type: 3}
      propertyPath: m_LocalRotation.z
      value: 0
      objectReference: {fileID: 0}
    - target: {fileID: 1919435605583720069, guid: 11a23642d8992fb48a97fcfb29a3d15a,
        type: 3}
      propertyPath: m_LocalRotation.w
      value: 1
      objectReference: {fileID: 0}
    - target: {fileID: 1919435605583720069, guid: 11a23642d8992fb48a97fcfb29a3d15a,
        type: 3}
      propertyPath: m_RootOrder
      value: 4
      objectReference: {fileID: 0}
    - target: {fileID: 1919435605583720069, guid: 11a23642d8992fb48a97fcfb29a3d15a,
        type: 3}
      propertyPath: m_LocalEulerAnglesHint.x
      value: 0
      objectReference: {fileID: 0}
    - target: {fileID: 1919435605583720069, guid: 11a23642d8992fb48a97fcfb29a3d15a,
        type: 3}
      propertyPath: m_LocalEulerAnglesHint.y
      value: 0
      objectReference: {fileID: 0}
    - target: {fileID: 1919435605583720069, guid: 11a23642d8992fb48a97fcfb29a3d15a,
        type: 3}
      propertyPath: m_LocalEulerAnglesHint.z
      value: 0
      objectReference: {fileID: 0}
    - target: {fileID: 3282518023559237750, guid: 11a23642d8992fb48a97fcfb29a3d15a,
        type: 3}
      propertyPath: m_Name
      value: MenuMusic
      objectReference: {fileID: 0}
    m_RemovedComponents: []
  m_SourcePrefab: {fileID: 100100000, guid: 11a23642d8992fb48a97fcfb29a3d15a, type: 3}
